﻿nombre,AM,AA,RM,RA,PMP
Administración de Bases de Datos,21,13,57,51,8
Administración de Bases de Datos,40,11,41,36,29
Administración de Bases de Datos,21,4,76,53,19
Administración de Bases de Datos,42,16,48,15,26
Administración General,39,37,67,48,2
Administración General,2,1,96,80,15
Administración General,1,1,104,86,17
Administración General,4,1,93,60,32
Algebra Lineal,62,2,82,62,60
Algebra Lineal,54,6,166,63,97
Algebra Lineal,57,7,164,43,114
Algebra Lineal,4,12,151,60,79
Algoritmos,39,18,113,78,21
Algoritmos,46,12,93,45,36
Algoritmos,62,19,155,65,71
Algoritmos,3,1,156,35,120
Arte Musical y Teatral,0,0,70,56,14
Arte Musical y Teatral,0,0,65,48,17
Arte Musical y Teatral,0,0,54,34,20
Arte Musical y Teatral,1,1,57,45,11
Auditoría de Sistemas,2,2,30,30,0
Auditoría de Sistemas,78,15,49,24,63
Auditoría de Sistemas,8,3,54,43,16
Auditoría de Sistemas,10,4,66,58,6
Cálculo I,69,31,84,41,38
Cálculo I,95,19,79,28,76
Cálculo I,69,6,179,47,139
Cálculo I,130,18,232,25,189
Cálculo II,45,4,61,29,54
Cálculo II,0,0,85,33,60
Cálculo II,0,0,118,33,98
Cálculo II,34,7,104,44,67
Cálculo III,52,27,119,72,25
Cálculo III,77,17,56,19,60
Cálculo III,49,17,123,40,66
Cálculo III,42,5,114,48,61
Calidad Total,5,1,28,17,10
Calidad Total,1,1,26,11,14
Calidad Total,0,0,36,15,21
Calidad Total,0,0,37,17,20
Comercio Electrónico,27,16,57,53,11
Comercio Electrónico,2,2,37,34,1
Comercio Electrónico,7,4,70,57,9
Comercio Electrónico,6,2,81,52,27
Computación Básica,13,13,114,81,20
Computación Básica,0,0,94,62,32
Computación Básica,7,6,97,69,22
Computación Básica,13,3,111,54,54
Comunicación Oral y Escrita,4,3,103,80,20
Comunicación Oral y Escrita,16,12,90,53,25
Comunicación Oral y Escrita,6,4,111,89,18
Comunicación Oral y Escrita,13,1,112,74,37
Contabilidad General,15,7,76,36,33
Contabilidad General,30,12,92,50,30
Contabilidad General,23,10,146,55,81
Contabilidad General,3,2,143,83,58
Control y Automatización de Procesos,1,1,42,39,2
Control y Automatización de Procesos,0,0,43,42,1
Control y Automatización de Procesos,6,6,56,44,6
Control y Automatización de Procesos,6,3,55,49,3
Creatividad Empresarial,1,1,38,34,3
Creatividad Empresarial,7,4,38,31,3
Creatividad Empresarial,5,4,49,34,11
Creatividad Empresarial,4,1,44,34,9
Deportes Menores,0,0,93,82,11
Deportes Menores,2,1,82,65,16
Deportes Menores,3,2,69,52,15
Deportes Menores,4,1,80,73,6
Desarrollo Web,6,5,45,19,21
Desarrollo Web,0,0,29,12,17
Desarrollo Web,4,2,43,7,34
Desarrollo Web,1,1,39,11,27
Economía,25,3,119,102,22
Economía,0,0,81,58,23
Economía,27,4,121,68,49
Economía,19,5,126,84,37
Estadística I,12,1,149,95,53
Estadística I,18,4,102,53,45
Estadística I,56,6,115,26,83
Estadística I,33,4,119,57,58
Estadística II,42,2,92,55,51
Estadística II,0,0,113,44,69
Estadística II,7,2,68,26,46
Estadística II,20,10,94,41,43
Estructuras de Datos,18,1,75,44,30
Estructuras de Datos,18,4,90,39,47
Estructuras de Datos,19,14,136,56,66
Estructuras de Datos,8,7,109,59,43
Física I,16,1,69,46,22
Física I,0,0,68,44,42
Física I,0,0,110,44,66
Física I,0,0,78,42,53
Física II,27,25,64,51,2
Física II,4,3,68,58,7
Física II,11,1,58,43,14
Física II,86,11,145,17,117
Folklore,1,1,13,8,4
Folklore,0,0,53,47,6
Folklore,0,0,53,40,13
Folklore,1,1,49,35,13
Gestión de Centros de Información,0,0,11,9,2
Gestión de Centros de Información,0,0,13,6,7
Gestión de Centros de Información,0,0,25,10,15
Gestión de Centros de Información,0,0,17,8,9
Gestión de Empresas,0,0,24,19,5
Gestión de Empresas,19,18,76,16,42
Gestión de Empresas,4,4,61,18,39
Gestión de Empresas,11,7,63,28,28
Gestión de Recursos Humanos,12,11,66,45,10
Gestión de Recursos Humanos,2,2,95,85,8
Gestión de Recursos Humanos,2,1,108,79,28
Gestión de Recursos Humanos,2,1,77,28,48
Gestión Financiera,23,1,59,50,22
Gestión Financiera,17,1,50,24,25
Gestión Financiera,0,0,65,54,11
Gestión Financiera,6,1,52,44,7
Ingeniería de la Información,0,0,0,0,0
Ingeniería de la Información,0,0,41,32,9
Ingeniería de la Información,8,8,25,7,10
Ingeniería de la Información,0,0,11,1,10
Ingeniería de Software,8,2,20,17,6
Ingeniería de Software,4,1,23,13,9
Ingeniería de Software,0,0,37,18,19
Ingeniería de Software,1,1,42,16,25
Ingeniería Económica,11,8,42,33,3
Ingeniería Económica,16,8,43,36,8
Ingeniería Económica,0,0,71,48,23
Ingeniería Económica,29,3,75,31,41
Investigación de Operaciones I,9,2,88,74,12
Investigación de Operaciones I,6,4,89,71,14
Investigación de Operaciones I,0,0,75,38,41
Investigación de Operaciones I,6,1,100,68,37
Investigación de Operaciones II,0,0,20,19,5
Investigación de Operaciones II,0,0,72,64,8
Investigación de Operaciones II,42,8,106,54,44
Investigación de Operaciones II,21,15,76,42,21
Legislación,2,1,122,111,10
Legislación,5,5,126,73,48
Legislación,0,0,118,87,31
Legislación,0,0,81,58,23
Liderazgo,13,10,44,13,21
Liderazgo,1,1,85,66,18
Liderazgo,4,4,110,84,22
Liderazgo,7,3,97,54,40
Logística,3,2,67,61,4
Logística,0,0,27,27,0
Logística,10,9,65,45,11
Logística,1,1,89,79,9
Macroeconomía,31,20,70,35,15
Macroeconomía,45,14,57,3,40
Macroeconomía,12,10,125,110,5
Macroeconomía,10,3,112,99,10
Matemática Básica,104,25,88,39,79
Matemática Básica,76,24,112,75,52
Matemática Básica,75,25,151,41,85
Matemática Básica,72,9,150,45,96
Matemática Discreta,47,4,95,60,43
Matemática Discreta,55,3,152,51,98
Matemática Discreta,19,2,158,61,95
Matemática Discreta,45,12,122,67,43
Mercadotecnia,0,0,48,31,17
Mercadotecnia,0,0,49,42,7
Mercadotecnia,8,7,48,19,22
Mercadotecnia,2,2,87,67,18
Método del Estudio Universitario,3,3,107,96,8
Método del Estudio Universitario,0,0,96,80,16
Método del Estudio Universitario,9,6,100,88,6
Método del Estudio Universitario,9,2,97,57,38
Metodología de Sistemas Blandos,1,1,78,76,1
Metodología de Sistemas Blandos,3,3,87,74,10
Metodología de Sistemas Blandos,3,2,46,35,9
Metodología de Sistemas Blandos,5,2,72,56,14
Métodos Numéricos,45,4,85,54,41
Métodos Numéricos,49,4,82,23,55
Métodos Numéricos,32,1,105,51,53
Métodos Numéricos,0,0,102,80,22
Microeconomía,0,0,90,55,35
Microeconomía,46,4,115,40,71
Microeconomía,4,1,118,91,26
Microeconomía,6,4,114,100,10
Modelamiento de Datos,8,1,64,64,7
Modelamiento de Datos,10,3,72,58,11
Modelamiento de Datos,1,1,62,29,32
Modelamiento de Datos,20,7,66,47,13
Organización y Métodos,9,5,74,41,31
Organización y Métodos,27,1,98,42,65
Organización y Métodos,5,1,105,55,49
Organización y Métodos,11,2,126,40,84
Planeamiento de Sistemas de Información,36,7,61,59,29
Planeamiento de Sistemas de Información,52,19,52,42,33
Planeamiento de Sistemas de Información,20,8,65,41,16
Planeamiento de Sistemas de Información,16,10,77,37,30
Planeamiento Estratégico de Negocios,5,1,49,43,5
Planeamiento Estratégico de Negocios,3,3,64,49,12
Planeamiento Estratégico de Negocios,3,3,41,36,2
Planeamiento Estratégico de Negocios,3,2,76,73,1
Programación Orientada a Objetos,10,3,118,85,30
Programación Orientada a Objetos,13,6,88,54,28
Programación Orientada a Objetos,4,3,112,44,65
Programación Orientada a Objetos,36,3,102,46,53
Proyectos de Inversión,14,5,41,39,9
Proyectos de Inversión,31,14,50,46,17
Proyectos de Inversión,23,9,51,19,23
Proyectos de Inversión,0,0,79,73,6
Realidad Nacional,0,0,62,36,26
Realidad Nacional,0,0,45,32,13
Realidad Nacional,0,0,73,42,31
Realidad Nacional,1,1,86,53,32
Redes de Computadoras,18,14,19,18,8
Redes de Computadoras,56,14,50,45,42
Redes de Computadoras,40,21,100,33,46
Redes de Computadoras,23,16,81,29,36
Reingeniería de Procesos,3,1,29,14,14
Reingeniería de Procesos,1,1,25,17,7
Reingeniería de Procesos,1,1,30,7,22
Reingeniería de Procesos,1,1,29,12,16
Seguridad Informática,18,1,44,27,24
Seguridad Informática,54,1,81,32,53
Seguridad Informática,8,8,71,29,34
Seguridad Informática,16,3,40,30,29
Seminario de Empresas,5,2,37,19,16
Seminario de Empresas,22,17,85,27,41
Seminario de Empresas,4,4,67,48,15
Seminario de Empresas,1,1,68,51,16
Seminario de Tesis I,10,7,56,56,3
Seminario de Tesis I,50,28,20,17,22
Seminario de Tesis I,5,4,62,56,2
Seminario de Tesis I,16,10,60,43,7
Seminario de Tesis II,26,6,51,48,20
Seminario de Tesis II,0,0,51,44,7
Seminario de Tesis II,0,0,65,47,18
Seminario de Tesis II,26,5,60,53,21
Sistema de Costos,12,10,59,43,6
Sistema de Costos,19,3,85,52,30
Sistema de Costos,2,1,98,55,42
Sistema de Costos,19,2,109,55,52
Sistemas de Información Gerencial,0,0,69,65,4
Sistemas de Información Gerencial,10,4,44,32,22
Sistemas de Información Gerencial,7,3,62,57,4
Sistemas de Información Gerencial,6,3,41,37,3
Sistemas de Información I,11,1,64,63,10
Sistemas de Información I,0,0,77,29,48
Sistemas de Información I,10,2,72,39,31
Sistemas de Información I,15,3,75,56,16
Sistemas de Información II,1,1,43,41,5
Sistemas de Información II,11,5,57,55,6
Sistemas de Información II,6,6,56,48,2
Sistemas de Información II,13,1,46,28,17
Sistemas Digitales y Arquitectura de Computadoras,26,26,55,54,0
Sistemas Digitales y Arquitectura de Computadoras,47,38,42,35,9
Sistemas Digitales y Arquitectura de Computadoras,46,35,65,10,20
Sistemas Digitales y Arquitectura de Computadoras,41,2,80,9,69
Sistemas Dinámicos,15,3,80,58,19
Sistemas Dinámicos,5,4,87,58,25
Sistemas Dinámicos,5,4,61,36,21
Sistemas Dinámicos,3,2,80,65,13
Sistemas Distribuidos,0,0,19,15,4
Sistemas Distribuidos,0,0,15,13,2
Sistemas Distribuidos,2,2,34,6,26
Sistemas Distribuidos,5,3,33,5,25
Sistemas Eléctricos y Electrónicos,43,1,54,49,42
Sistemas Eléctricos y Electrónicos,0,0,73,38,35
Sistemas Eléctricos y Electrónicos,0,0,58,36,22
Sistemas Eléctricos y Electrónicos,13,8,32,24,5
Sistemas Expertos,0,0,54,40,14
Sistemas Expertos,24,8,74,47,19
Sistemas Expertos,6,3,88,39,46
Sistemas Expertos,31,13,103,49,41
Sistemas Operativos,47,2,51,46,45
Sistemas Operativos,50,20,79,22,42
Sistemas Operativos,4,1,63,34,32
Sistemas Operativos,28,11,42,29,17
Soporte para la Toma de Decisiones,0,0,34,30,4
Soporte para la Toma de Decisiones,0,0,19,11,8
Soporte para la Toma de Decisiones,0,0,35,9,26
Soporte para la Toma de Decisiones,3,3,23,12,8
Taller de Ingeniería de Sistemas,3,1,26,26,2
Taller de Ingeniería de Sistemas,0,0,53,35,23
Taller de Ingeniería de Sistemas,9,6,51,33,12
Taller de Ingeniería de Sistemas,0,0,52,44,14
Teoría de Decisiones,0,0,36,27,9
Teoría de Decisiones,0,0,71,48,23
Teoría de Decisiones,2,1,76,49,26
Teoría de Decisiones,13,7,80,18,55
Teoría General de Sistemas,21,12,51,46,9
Teoría General de Sistemas,7,5,40,31,5
Teoría General de Sistemas,1,1,69,61,7
Teoría General de Sistemas,5,5,62,51,6
